STAT 9610Lecture Notes - 5 Generalized linear models: Special cases
…
    filter, lag

The following objects are masked from 'package:base':

    intersect, setdiff, setequal, union

library(ggplot2)
library(tibble)
library(tidyr)

ucb_data <- UCBAdmissions |> as_tibble()
ucb_data

# A tibble: 24 × 4
   Admit    Gender Dept      n
   <chr>    <chr>  <chr> <dbl>
 1 Admitted Male   A       512
 2 Rejected Male   A       313
 3 Admitted Female A        89
 4 Rejected Female A        19
 5 Admitted Male   B       353
 6 Rejected Male   B       207
 7 Admitted Female B        17
 8 Rejected Female B         8
 9 Admitted Male   C       120
10 Rejected Male   C       205
# ℹ 14 more rows
…
# add CrimeRate to crime_data
crime_data <- crime_data |>
  mutate(STATE = ifelse(STATE == "IO", "IA", STATE)) |>
  rename(state_abbrev = STATE) |>
  filter(state_abbrev != "DC") |> # remove outlier
  left_join(state_abbreviations, by = "state_abbrev") |>
  left_join(population_data, by = "state_name") |>
  select(state_abbrev, Violent, Metro, HighSchool, Poverty, state_pop)

crime_data

# A tibble: 50 × 6
   state_abbrev Violent Metro HighSchool Poverty state_pop
   <chr>          <dbl> <dbl>      <dbl>   <dbl>     <dbl>
 1 AK               593  65.6       90.2     8      724357
 2 AL               430  55.4       82.4    13.7   4934193
 3 AR               456  52.5       79.2    12.1   3033946
 4 AZ               513  88.2       84.4    11.9   7520103
 5 CA               579  94.4       81.3    10.5  39613493
 6 CO               345  84.5       88.3     7.3   5893634
 7 CT               308  87.7       88.8     6.4   3552821
 8 DE               658  80.1       86.5     5.8    990334
 9 FL               730  89.3       85.9     9.7  21944577
10 GA               454  71.6       85.2    10.8  10830007
# ℹ 40 more rows
…
