STAT 9610Lecture Notes - 4 Generalized linear models: General theory
…
# add CrimeRate to crime_data
crime_data <- crime_data |>
  mutate(STATE = ifelse(STATE == "IO", "IA", STATE)) |>
  rename(state_abbrev = STATE) |>
  filter(state_abbrev != "DC") |> # remove outlier
  left_join(state_abbreviations, by = "state_abbrev") |>
  left_join(population_data, by = "state_name") |>
  mutate(CrimeRate = Violent / state_pop) |>
  select(state_abbrev, CrimeRate, Metro, HighSchool, Poverty, state_pop)

crime_data

# A tibble: 50 × 6
   state_abbrev CrimeRate Metro HighSchool Poverty state_pop
   <chr>            <dbl> <dbl>      <dbl>   <dbl>     <dbl>
 1 AK           0.000819   65.6       90.2     8      724357
 2 AL           0.0000871  55.4       82.4    13.7   4934193
 3 AR           0.000150   52.5       79.2    12.1   3033946
 4 AZ           0.0000682  88.2       84.4    11.9   7520103
 5 CA           0.0000146  94.4       81.3    10.5  39613493
 6 CO           0.0000585  84.5       88.3     7.3   5893634
 7 CT           0.0000867  87.7       88.8     6.4   3552821
 8 DE           0.000664   80.1       86.5     5.8    990334
 9 FL           0.0000333  89.3       85.9     9.7  21944577
10 GA           0.0000419  71.6       85.2    10.8  10830007
# ℹ 40 more rows
…
[1] 0

Also zero. So we need to immediately stop using this model for inference about these data, since it fits the data very poorly. We will discuss how to build a better model for the crime data in the next unit. For now, we turn to analyzing a different dataset.

4.5.2 Noisy miner data

Credit: Generalized Linear Models With Examples in R textbook.

Let’s consider the noisy miner dataset. Noisy miners are a small but aggressive native Australian bird. We want to know how the number of these birds observed in a patch of land depends on various factors of that patch of land.

library(GLMsData)
data("nminer")
nminer |> as_tibble()

# A tibble: 31 × 8
   Miners  Eucs  Area Grazed Shrubs Bulokes Timber Minerab
    <int> <int> <int>  <int>  <int>   <int>  <int>   <int>
 1      0     2    22      0      1     120     16       0
 2      0    10    11      0      1      67     25       0
 3      1    16    51      0      1      85     13       3
 4      1    20    22      0      1      45     12       2
 5      1    19     4      0      1     160     14       8
 6      1    18    61      0      1      75      6       1
 7      1    12    16      0      1     100     12       8
 8      1    16    14      0      1     321     15       5
 9      0     3     5      0      1     275      8       0
10      1    12     6      1      0     227     10       4
# ℹ 21 more rows
…
