STAT 9610Lecture Notes - 1 Linear models: Estimation
…
We will also familiarize ourselves with several important functions from the tidyverse packages, including the ggplot2 package for data visualization and dplyr package for data manipulation.

library(tidyverse) # for data import, manipulation, and plotting
library(GGally)    # for ggpairs() function
library(ggrepel)   # for geom_text_repel() function
library(car)       # for vif() function
library(conflicted)
conflicts_prefer(dplyr::filter)

# read the data into R
scots_races <- read_tsv("data/ScotsRaces.dat") # read_tsv from readr for data import
scots_races

# A tibble: 35 × 4
   race                   distance climb  time
   <chr>                     <dbl> <dbl> <dbl>
 1 GreenmantleNewYearDash      2.5  0.65  16.1
 2 Carnethy5HillRace           6    2.5   48.4
 3 CraigDunainHillRace         6    0.9   33.6
 4 BenRhaHillRace              7.5  0.8   45.6
 5 BenLomondHillRace           8    3.07  62.3
 6 GoatfellHillRace            8    2.87  73.2
 7 BensofJuraFellRace         16    7.5  205. 
 8 CairnpappleHillRace         6    0.8   36.4
 9 ScoltyHillRace              5    0.8   29.8
10 TraprainLawRace             6    0.65  39.8
# ℹ 25 more rows
…
