STAT 9610Lecture Notes - 2 Linear models: Inference
…
We need to ask ourselves: Why do we want to do model selection? It can either be for prediction purposes or for inferential purposes. If it is for prediction purposes, then we can apply cross-validation to select a model and we don’t need to think very hard about statistical significance. If it is for inference, then we need to be more careful. There are various classical model selection criteria (e.g., AIC, BIC), but it is not entirely clear what statistical guarantee we are getting for the resulting models. A simpler approach is to apply a \(t\)-test for each variable in the model, apply a multiple testing correction to the resulting \(p\)-values, and report the set of significant variables and the associated guarantee. Re-fitting the linear regression after model selection leads us into some dicey inferential territory due to selection bias. This is the subject of ongoing research, and the jury is still out on the best way of doing this.

2.6 R demo

See also Agresti 3.4.1, 3.4.3, Dunn and Smyth 2.6, 2.14

Let’s put into practice what we’ve learned in this chapter by analyzing data about house prices.

library(tidyverse)
library(GGally)

houses_data <- read_tsv("data/Houses.dat")
houses_data

# A tibble: 100 × 7
    case taxes  beds baths   new price  size
   <dbl> <dbl> <dbl> <dbl> <dbl> <dbl> <dbl>
 1     1  3104     4     2     0  280.  2048
 2     2  1173     2     1     0  146.   912
 3     3  3076     4     2     0  238.  1654
 4     4  1608     3     2     0  200   2068
 5     5  1454     3     3     0  160.  1477
 6     6  2997     3     2     1  500.  3153
 7     7  4054     3     2     0  266.  1355
 8     8  3002     3     2     1  290.  2075
 9     9  6627     5     4     0  587   3990
10    10   320     3     2     0   70   1160
# ℹ 90 more rows
…
head(predictions$se.fit)

        1         2         3         4         5         6 
14.246855 14.131352 14.277804  9.789472 21.625709 21.797212 

Now we can construct the simultaneous confidence intervals via the formula (2.17):

f_quantile <- qf(1 - alpha, df1 = p, df2 = n - p)
tibble(
  lower = predictions$fit - predictions$se.fit * sqrt(p * f_quantile),
  upper = predictions$fit + predictions$se.fit * sqrt(p * f_quantile)
)

# A tibble: 100 × 2
   lower upper
   <dbl> <dbl>
 1 133.   254.
 2  20.3  140.
 3  90.3  211.
 4 150.   233.
 5  32.9  216.
 6 285.   469.
 7  82.8  145.
 8 188.   331.
 9 371.   803.
10  57.3  128.
# ℹ 90 more rows
…
