STAT 9610 Lecture Notes - 18 R demo
…
18.1 Heteroskedasticity

Next, let’s look at another dataset, from the Current Population Survey (CPS).

library(readr)
library(ggplot2)
library(dplyr)
library(tibble)
library(tidyr)

cps_data <- read_tsv("data/cps2.tsv")
cps_data

# A tibble: 1,000 × 10
    wage  educ exper female black married union south fulltime metro
   <dbl> <dbl> <dbl>  <dbl> <dbl>   <dbl> <dbl> <dbl>    <dbl> <dbl>
 1  2.03    13     2      1     0       0     0     1        0     0
 2  2.07    12     7      0     0       0     0     0        0     1
 3  2.12    12    35      0     0       0     0     1        1     1
 4  2.54    16    20      1     0       0     0     1        1     1
 5  2.68    12    24      1     0       1     0     1        0     1
 6  3.09    13     4      0     0       0     0     1        0     1
 7  3.16    13     1      0     0       0     0     0        0     0
 8  3.17    12    22      1     0       1     0     1        0     1
 9  3.2     12    23      0     0       1     0     1        1     1
10  3.27    12     4      1     0       0     0     0        1     1
# ℹ 990 more rows
…
Let’s consider the nslwork data from the webuse package:

library(webuse)
nlswork_orig <- webuse("nlswork")
nlswork <- nlswork_orig |>
  filter(idcode <= 100) |>
  select(idcode, year, ln_wage, age, tenure, union) |>
  na.omit() |>
  mutate(
    union = as.integer(union),
    idcode = as.factor(idcode)
  )
nlswork

# A tibble: 386 × 6
   idcode  year ln_wage   age tenure union
   <fct>  <dbl>   <dbl> <dbl>  <dbl> <int>
 1 1         72    1.59    20  0.917     1
 2 1         77    1.78    25  1.5       0
 3 1         80    2.55    28  1.83      1
 4 1         83    2.42    31  0.667     1
 5 1         85    2.61    33  1.92      1
 6 1         87    2.54    35  3.92      1
 7 1         88    2.46    37  5.33      1
 8 2         71    1.36    19  0.25      0
 9 2         77    1.73    25  2.67      1
10 2         78    1.69    26  3.67      1
# ℹ 376 more rows
…
# add CrimeRate to crime_data
crime_data <- crime_data |>
  mutate(STATE = ifelse(STATE == "IO", "IA", STATE)) |>
  rename(state_abbrev = STATE) |>
  left_join(state_abbreviations, by = "state_abbrev") |>
  left_join(population_data, by = "state_name") |>
  mutate(CrimeRate = Violent / state_pop) |>
  select(state_abbrev, CrimeRate, Metro, HighSchool, Poverty)

crime_data

# A tibble: 51 × 5
   state_abbrev CrimeRate Metro HighSchool Poverty
   <chr>            <dbl> <dbl>      <dbl>   <dbl>
 1 AK           0.000819   65.6       90.2     8  
 2 AL           0.0000871  55.4       82.4    13.7
 3 AR           0.000150   52.5       79.2    12.1
 4 AZ           0.0000682  88.2       84.4    11.9
 5 CA           0.0000146  94.4       81.3    10.5
 6 CO           0.0000585  84.5       88.3     7.3
 7 CT           0.0000867  87.7       88.8     6.4
 8 DE           0.000664   80.1       86.5     5.8
 9 FL           0.0000333  89.3       85.9     9.7
10 GA           0.0000419  71.6       85.2    10.8
# ℹ 41 more rows
…
The information underlying these diagnostic plots can be extracted as follows:

tibble(
  state = crime_data$state_abbrev,
  std_residual = rstandard(lm_fit),
  fitted_value = fitted.values(lm_fit),
  leverage = hatvalues(lm_fit),
  cooks_dist = cooks.distance(lm_fit)
)

# A tibble: 51 × 5
   state std_residual fitted_value leverage cooks_dist
   <chr>        <dbl>        <dbl>    <dbl>      <dbl>
 1 AK           2.17     0.000227    0.0463   0.0574  
 2 AL          -0.422    0.000200    0.0769   0.00371 
 3 AR           1.10    -0.000132    0.153    0.0547  
 4 AZ          -1.02     0.000344    0.0568   0.0156  
 5 CA          -0.264    0.0000839   0.114    0.00224 
 6 CO          -0.383    0.000163    0.0405   0.00155 
 7 CT          -0.175    0.000134    0.0561   0.000456
 8 DE           2.81    -0.0000888   0.0754   0.161   
 9 FL          -0.804    0.000252    0.0452   0.00764 
10 GA          -0.599    0.000207    0.0232   0.00213 
# ℹ 41 more rows
…
